<svg xmlns:rdf="http://www.w3.org/1999/02/22-rdf-syntax-ns#" xmlns="http://www.w3.org/2000/svg" height="363.98" width="459.24" version="1.1" xmlns:cc="http://creativecommons.org/ns#" xmlns:xlink="http://www.w3.org/1999/xlink" xmlns:dc="http://purl.org/dc/elements/1.1/">
 <defs>
  <style type="text/css">.fil3 {fill:#286786}
    .fil1 {fill:#2FAED6}
    .fil4 {fill:#38C5FB}
    .fil0 {fill:#6296AB}
    .fil2 {fill:#6FB2D1}</style>
 </defs>
 <g transform="translate(803.44 1160.9)">
  <path d="m-732.11-1140.7c-12.88 4.3-20 10.5-25.25 21.9-2.5 5.6-3 8.2-2.5 14.8 0.25 4.5 1.37 11 2.5 14.6 1.75 5.8 2 17.4 2 93.3 0 85.46-0.13 86.8-2.63 91.2-3.37 5.75-3.62 22.13-0.5 27.75 1.13 1.95 2 4.28 2 5.01 0 2.2 13.75 12.71 16.75 12.71 1 0 2.25 0.49 2.63 1.22 1.37 2.2 17.5 1.47 23.5-1.1 10.87-4.64 18.62-14.18 20.5-25.3l0.75-4.15 44.49 0.24 44.5 0.37 0.25 18.33c0.25 10.02 0.63 19.07 1 19.8 0.88 2.33 58 2.33 58.88 0 0.25-0.85 0.75-9.9 0.87-19.92l0.25-18.21 31.25 0.24c42.5 0.37 37.88 0.37 81.88-0.61l39.37-0.86 0.38-31.9c0.25-31.78 0.25-31.9 3.12-33.12 4.63-2.08 10.88-7.7 13-11.86 3-5.62 2.75-17.2-0.62-23.64-2.63-5-10.38-11.4-13.63-11.4-1.25 0-1.62-11.2-1.62-54.2 0-44-0.38-54.5-1.63-55.6-1.25-1-22.37-1.4-73.12-1.5h-71.5v-2.7c-0.13-7.1-5.88-17.4-12.25-21.8-7.63-5.1-13.88-6.6-21.25-4.7-9.88 2.5-17 8.3-20.13 16.5-1.5 3.8-2.62 8.2-2.62 9.8v3h-45.88-45.99l-3-6.5c-5.75-12.1-15.25-19.5-29.13-22.7-7.5-1.7-9-1.6-16.62 1zm22.12 5.7c14.25 5.4 24.25 22.8 21 36.2-0.87 3.3-1.37 6.1-1.12 6.4 0.25 0.2 4.5 2.7 9.25 5.3 4.87 2.9 9.37 5.5 10 6 0.75 0.5 4.37 2.6 8.12 4.6 3.75 1.9 10.62 5.9 15.37 8.9 4.63 2.9 8.63 5.2 9 5.2 0.25 0 3.75 2 7.63 4.4 6.75 4.3 7 4.3 11.12 2.5 2.25-1.1 6.13-2 8.38-2 2.62 0 5.12-0.8 6.25-2.2 2.62-2.9 16-23.8 20-31.1 1.87-3.5 4-6.8 4.62-7.4 0.88-0.8 0.5-2.3-1-4.4-3.75-5.4-5-10.2-3.75-16.1 0.5-2.9 1-5.8 1.13-6.1 0-0.4 1.5-2.4 3.37-4.4 9-9.7 22.75-10.4 32-1.9 5.13 4.8 7.13 9.1 7.13 15.6 0 12.3-9.38 21.7-21.88 21.7-6.25 0-7.12 0.4-10 4.1-1.75 2.2-3.12 4.2-3.12 4.5 0 1.2-18 29.6-19.25 30.4-0.88 0.5-0.38 2.5 1.5 5.6 4.25 7.6 3.5 14.2-2.5 20.6-2.75 3-2.5 3.9 5.12 22.8 2.13 5.3 3.88 10.3 3.88 11.3 0 1.1 1.12 4.1 2.5 7.14 1.25 2.8 3.87 9.25 5.62 14.26 4.88 13.81 5.25 14.3 9.5 13.69 5.13-0.74 16.63 4.15 21 8.92 4.88 5.38 6.75 11.73 6.13 19.68-1 11.86-9.88 20.66-22.13 22.12-16.87 1.96-29.62-9.78-29.12-26.89 0.12-3.54 0.87-3.05-16.88-10.75-3.37-1.47-7.62-3.3-9.75-4.16-2-0.98-8.25-3.67-13.75-6.11-19.37-8.8-17.75-8.44-21.12-5.01-3.88 3.66-9.87 5.74-14.37 4.89-3.38-0.74-4.13 0.12-13.63 13.81-5.62 7.94-11.75 16.62-13.75 19.31-7 9.41-8.5 12.71-6.75 15.03 5.63 7.83 7.25 23.6 3.13 31.17-2.5 4.89-10.63 11.98-15.88 13.94-9.87 3.54-21.87 0.85-30.5-7.09-14.75-13.57-9.12-39.12 10.38-46.2 6.5-2.45 8.75-2.45 18.12-0.86 4.13 0.86 4.5 0.61 8-4.77 2-3.05 4.25-6.23 5-7.09 0.75-0.85 6.38-8.8 12.38-17.6 10.62-15.52 11-16.25 9.12-18.94-3.12-4.28-2.62-13.33 1.13-18.55 1.75-2.5 3.12-5.04 3.12-5.64 0-0.7-1.5-4.5-3.37-8.2-1.75-4-3.75-8.4-4.38-9.9-0.5-1.5-1.5-4-2.25-5.5-0.62-1.5-3.5-8.5-6.25-15.6-2.87-7.1-6.25-15.1-7.62-17.9-1.25-3-2.38-6-2.38-6.9 0-1-0.37-2.1-0.87-2.5-0.5-0.5-2.13-4.1-3.63-7.9l-2.62-6.9-8-0.6c-19.88-1.6-32.75-14.3-32.75-32.4-0.13-13.2 6.25-23.5 18.12-29.3 7.75-3.7 18.13-4.2 26.25-1.2zm227.62 25.5c5.25 2.2 10.13 7.5 12.25 13.2 2.25 6.2-0.25 13.5-6.75 19.5-2.62 2.6-5.25 4.7-5.62 4.7-0.88 0-0.63 3.7 1.75 28.3 0.5 5.8 1.37 9.5 2.25 9.5 2.75 0 8.12 6.2 8.87 10.2 0.88 4.5 0.38 4.1 17.5 13.1 6.88 3.6 16.5 8.6 21.25 11.2 17.75 9.6 16.38 9.2 20.38 5.5 11.62-10.7 30.62-5.4 36 10.44 1.75 5.26 1.75 6.72 0.25 11.61-2.13 7.21-8.13 13.08-15.88 15.65-9 2.81-15.25 0.98-22.75-6.85-6.25-6.35-8.62-7.09-17.25-4.89-2.5 0.74-10.62 2.08-18.25 3.18-22.87 3.18-21.87 2.94-23.25 6.36-0.62 1.71-2.25 3.91-3.62 5.13-2.38 1.96-2.38 2.08 0 16.87 2.5 15.64 3 17.48 5.25 17.48 3.12 0 9.37 6.11 10.87 10.63 1.5 4.28 1.38 5.38-1 10.39-3.12 6.24-6.62 8.31-14.25 8.31-8.12 0-13.5-4.89-14.25-13.08-0.62-5.74-0.37-6.47 3.88-11l4.5-5.01-1.25-9.53c-2.13-16.75-3.88-22.61-7-23.71-3.5-1.35-6.75-5.87-6.75-9.42 0-1.58-1.13-3.78-2.5-5.01-4.13-3.3-37.88-22.15-40-22.15-1 0-3.25 1.04-5 2.34-2.13 1.6-5.13 2.5-9.13 2.5-8.25 0-12.75-2.6-16.5-9.84-4.87-9.2 0.38-20.1 11.25-23.7 5.88-2.1 12.5-0.3 17.63 4.7 3.12 3.1 5.75 3.3 12.37 0.6 2.63-0.9 12-3.5 22.5-6.1 7.5-1.8 10.63-4.2 10.63-8 0-1.6 1.5-3.9 3.37-5.4l3.38-2.6-1.63-15.4c-2.12-21.5-2.25-22-6.25-22.7-3.87-0.7-11-7.3-12.75-11.6-2-5.2-1.25-13.1 1.75-17.5s12-9.7 16.75-9.7c1.63 0 4.75 0.8 7 1.8zm-112.87 10.6c0 0.8-1.75 4.3-4 7.7-2.13 3.4-5.25 8.7-7 11.7-1.63 3.1-3.5 6-4.13 6.6-1.25 1.4-9.75 4.4-12.5 4.4-1 0-10.75-5.2-21.62-11.6-10.88-6.3-20-11.6-20.25-11.6-1.37 0-10.5-6.6-10.5-7.5 0-0.6 18-1.1 40-1.1 29.12 0 40 0.4 40 1.4zm74 8.1c0.75 12.5 4.75 20 13.62 25.5 4 2.4 4.75 3.7 5.38 8.7 2.25 16.4 2.25 16.6-1.5 21.7-2.75 3.9-4.63 5.2-9.25 6.1-3.25 0.7-6.25 1.6-6.75 2.1-0.5 0.6-2.25 1-3.88 1-1.75 0-4.12 0.6-5.37 1.2-1.88 1-3.75 0.5-8.25-1.9-4.75-2.6-7.5-3.2-14.88-3.2-10.75 0-16.75 2.6-23.37 9.9-2.5 2.8-5.13 5-5.88 5-1.87 0-3.75-7.5-2.5-9.9 0.63-1.1 2-4.6 3.13-7.8 1.87-5.5 1.87-7.7-0.13-17.1-0.75-3.2 0.25-5.4 5.5-13.5 3.5-5.4 7.25-11.6 8.38-13.8 1.87-3.5 3.12-4.5 5.87-4 2.13 0.3 13-3.8 17.25-6.7 2.38-1.6 6-5.2 8.13-7.9 3.25-4.2 4.25-4.9 8.75-4.9h5.12l0.63 9.5zm119.5 34.9c0.25 40.8 0.12 43.8-1.88 44.4-1.25 0.3-4.62 1.8-7.62 3.2-5 2.4-5.63 2.4-8.75 0.7-1.88-1-7.88-4.3-13.38-7.1-24.37-12.8-25.62-13.6-25.62-16 0-1-2.25-4.9-5-8.4-2.75-3.6-5-7.1-5-7.9 0-0.7-0.38-5-0.75-9.4-0.63-6.9-0.38-8.5 1.62-10.5 7.25-7.1 12-19.5 10.88-28.2l-0.75-5.2 27.87 0.3 28 0.4 0.38 43.7zm-329.62-5.4c2.37 0.8 5.62 1.4 7.12 1.4 1.88 0 2.75 0.7 2.75 2.2 0 1.2 0.5 2.7 1 3.3 0.63 0.7 2.38 4.5 4 8.5 3.5 9.1 5.25 13.1 8.5 20.3 1.5 3.2 3 7.2 3.5 8.9 0.38 1.8 1.25 3.6 1.88 4 0.62 0.3 1.12 1.5 1.12 2.8 0 1.1 1.13 4.4 2.5 7.2 3.88 7.9 4.38 11.8 1.88 18.14-1.63 4.25-2 7.67-1.5 13.78l0.75 8.07-10.63 15.52-10.62 15.4-7.13 0.61c-3.87 0.37-9.25 1.1-11.75 1.47l-4.75 0.85v-67.14c0-36.9 0.38-67.5 0.75-68 0.38-0.3 2-0.2 3.38 0.3 1.5 0.6 4.75 1.7 7.25 2.4zm169.49 88.32c1.38 1.34 12.5 0.98 23.88-0.73 3.12-0.49 5.25-0.37 5.25 0.36 0 0.61 1 1.47 2.25 1.84 2.12 0.73 6 2.93 18.12 9.9 3.25 1.83 5.88 4.15 5.88 5.13 0 2.45 2.5 6.6 7.12 11.49 3.38 3.54 4.13 5.62 4.88 12.35 0.75 7.21 0.5 8.55-2.5 13.81-1.75 3.18-3.25 7.33-3.25 9.41 0 8.31-0.25 8.43-23.75 8.43-11.75 0-21.25-0.49-21.25-0.97 0-0.62 2.25-3.43 5-6.48 2.75-2.94 5-6.11 5-6.97 0-0.73 0.5-1.47 1-1.47 1.37 0 4-11.12 4-16.62 0-11-5.88-23.1-14.13-28.97-5.12-3.79-11.87-6.97-14.75-6.97-3.5 0-6.12-1.34-6.12-3.17 0-2.08 1.5-2.2 3.37-0.37zm141.63 20.05c2.37 2.32 5 4.27 5.87 4.27 0.88 0 1.63 0.49 1.63 0.98s2.5 1.71 5.62 2.57l5.63 1.59-0.25 21.02-0.38 20.9-21.5 0.37-21.62 0.24v-2.69c-0.13-6.6-6-18.21-11.25-21.88-4.5-3.3-6.25-7.94-6.25-16.99 0-8.67-0.38-8.55 24.62-11.97 3.63-0.61 6.88-1.35 7.38-1.84 2.12-1.95 6.5-0.61 10.5 3.43zm-224.38 5.5c2.75 1.34 5.38 2.32 6 2.44 0.5 0 5.5 2.08 11.25 4.64 5.63 2.57 12.13 5.51 14.38 6.36 4 1.47 7.75 6.48 7.75 10.27 0 5.5 13 21.63 18.75 23.34 1.75 0.49 3.87 1.59 4.87 2.33 1 0.73 6.63 1.34 14 1.22l12.38-0.12v17.96 18.09l-8.63 0.86c-4.75 0.49-12.87 0.49-18.12 0l-9.5-0.86v-20.04-20.05h-47.5-47.37l-2-3.66c-1-1.96-1.88-4.53-1.88-5.75 0-3.18 21.38-33.37 23.63-33.37 2.5 0 9.87-2.56 13.24-4.52 3.13-1.96 2.88-1.96 8.75 0.86z"/>
  <path d="m-570.74-1122.7c-4.13 4.1-4.25 8.9 0 13.8 4.12 4.9 9.87 5.1 14.75 0.7 4.25-3.8 4.37-9.8 0.25-14.4-4-4.6-10.38-4.6-15-0.1z"/>
  <path d="m-729.74-1119.8c-4.87 1.9-8 7.2-8 13.7 0 7.3 1.25 9.8 6.75 13.1 13.38 8 27.88-5.1 22-20-2.37-6.3-13.25-9.9-20.75-6.8z"/>
  <path d="m-700.74-1079.7-3.37 3.5 2.62 7.2c1.5 3.9 3.75 9.6 5.13 12.5 1.37 2.9 3.37 7.6 4.37 10.4 1.13 2.8 2.88 7 3.75 9 1 2.2 2.63 6.3 3.63 9 1 2.6 2.62 6.8 3.75 9.1 4 8.9 5.5 12.5 8.12 19.8 1.5 4.3 3.25 7.4 3.88 7 0.62-0.4 3.25 0 6 0.7 5.62 1.5 12.62 8.74 12.62 13.14 0 2.45 5.62 7.7 8.37 7.7 0.63 0 4.75 1.71 9.25 3.79 4.38 2.08 10.75 4.89 14.25 6.23 5.75 2.2 14.38 5.99 24.13 10.39 4 1.84 4.25 1.84 7.37-1.1 3.13-3.05 3.13-3.05 1.13-9.04-1.13-3.3-2.63-7.33-3.5-9.05-2.25-5.13-3.25-7.57-6.63-17.12-1.75-5.04-3.62-10.34-4.25-11.64-1.12-2.3-7.25-18.8-8.25-22.2-0.37-0.9-3.12-2.2-6.25-3-9.37-2.3-14.37-8.9-14.37-18.8 0-2.1-2-4-8.25-7.8-4.5-2.7-8.38-5-8.63-5-0.37 0-7.12-3.9-15.12-8.6-8-4.8-14.75-8.5-15.12-8.5-0.38 0-2.13-1-3.88-2.4-4.5-2.9-15.12-8.6-16.25-8.6-0.62 0-2.62 1.5-4.5 3.4zm21.75 19.8c1.75 1.3 3.88 2.4 4.75 2.4 0.75 0 1.5 0.5 1.5 1.1s1.5 1.7 3.5 2.5c1.88 0.7 5.63 2.7 8.38 4.4 2.74 1.6 6.12 3.5 7.49 4.1 6.5 3 13.13 8.8 13.13 11.6 0 1.7 0.62 3.5 1.25 3.8 0.75 0.4 1.25 1.7 1.25 2.8 0 3.1 6.25 9.4 13.12 13.4 6 3.4 6.5 4 9.38 10.7 2.62 6.1 3.5 8.3 5.62 14.7 2.38 6.86 4.13 11.26 5.75 14.32 1.63 3.06 1.38 5.87-0.37 5.87-0.88 0-4.38-1.35-7.75-3.06-3.38-1.71-6.63-3.06-7.13-3.06s-4.5-1.58-8.87-3.54c-8.38-3.79-10.5-5.59-13.5-11.63-2.5-4.8-10.88-11.8-16.13-13.5-3.24-0.9-4.62-2.4-5.87-5.8-0.87-2.5-2.37-6.4-3.37-8.6s-3.38-7.9-5.25-12.6c-1.88-4.7-4.5-10.9-5.75-13.5-1.25-2.9-2.63-6.6-3.13-8.4-0.37-1.7-1.25-3.5-1.87-3.9-1.38-0.7-1.5-6.6-0.13-6.6 0.5 0 2.25 1.1 4 2.5z"/>
  <path d="m-574.87-943.77c-12.37 7.34-4.37 26.65 9.88 23.96 11.75-2.08 14-19.19 3.25-24.69-4.63-2.32-8.38-2.2-13.13 0.73z"/>
  <path d="m-734.74-903.55c-4.25 2.56-8 8.67-8 12.95 0 3.91 3.5 10.15 6.88 12.35 8.25 5.25 18.5 2.56 23.12-5.99 2.38-4.77 2.5-5.62 1-10.64-3-9.77-14.12-13.93-23-8.67z"/>
  <path d="m-495.24-1013.5c-1 0.6-3.13 1.2-4.75 1.2-1.5 0-3.75 0.5-5 1.1-2 1.1-7.63 3-20.25 6.3-7.75 2.1-9.38 2.9-9.75 5.6-0.25 1.8 3.75 4.6 19.37 13.34 24.13 13.59 23.38 13.22 28 10.9 4.25-2.08 6.5-1.59 12.88 2.57 4.87 3.18 3.75 3.18 31.37-1.22 6.88-1.23 15-2.45 18-2.94 4.75-0.61 5.75-1.22 6.5-4.03 1-3.98-0.5-5.38-14.5-12.22-15.37-7.6-33.75-17.2-35-18.3-1.5-1.4-7.75-1.3-8.75 0.2-1.62 2.5-14.37 0.1-14.37-2.8 0-1.3-1.5-1.1-3.75 0.3zm5.62 14.7c1 1.6 11.38 1.6 14.63-0.1 1.37-0.8 2.87-0.9 3.37-0.4 0.38 0.6 5.63 3.5 11.75 6.5 6 2.9 11.13 5.74 11.5 6.24 0.63 1.1-4.37 2.3-13.25 3.3-4.37 0.4-6.75 0-9.37-1.7-2.63-1.6-5.88-2.2-13-2.2-8.38 0-10.25-0.5-14.75-3.44-2.88-1.9-5.75-3.3-6.38-3.3-0.62 0-1.37-0.9-1.87-1.9-0.38-1.2 0.12-1.8 1.75-1.8 1.25 0 2.75-0.6 3.12-1.2 0.38-0.7 3.25-1.2 6.25-1.2s5.88 0.5 6.25 1.2z"/>
  <path d="m-399.87-986.56c-4.37 1.7-7 6.73-6.12 11.5 1 5.14 3.12 6.85 9.37 7.7 4.13 0.61 5.5 0.12 8.25-2.69 2.88-2.69 3.38-4.03 2.75-7.94-0.37-2.69-1.37-5.57-2.37-6.57-2.38-2.2-8.5-3.3-11.88-2z"/>
  <path d="m-635.87-859.43c-0.37 0.61-1.87 1.22-3.12 1.22-4.25 0-15.88 6.36-18 9.9-3.25 5.38-1 9.05 8.25 13.2 4.37 1.96 10.12 4.04 12.87 4.77 2.75 0.74 7.38 1.84 10.13 2.57 7.37 1.95 40.37 5.01 53 5.01 14.25 0 45.12-3.18 55.12-5.5 4.38-1.1 9.38-2.32 11.13-2.69 1.75-0.49 6.5-2.57 10.62-4.64 6.5-3.43 7.5-4.53 7.88-7.95 0.25-2.44-0.38-4.77-1.88-6.35-3.12-3.43-20-10.76-24.75-10.76-0.87 0-1.25 1.34-0.87 3.54 0.37 2.81-0.25 4.04-3.75 6.6-3.75 2.82-8.25 4.28-25.13 8.07-7.62 1.71-49 1.71-56.75 0-15.25-3.42-21.25-5.38-25.12-8.19-3.63-2.57-4.13-3.54-3.5-6.48 0.62-3.17 0.37-3.54-2.38-3.54-1.62 0-3.37 0.49-3.75 1.22z"/>
 </g>
</svg>
